<svg xmlns="http://www.w3.org/2000/svg" width="85.2" height="85.2" viewBox="0 0 85.2 85.2">
  <g id="Group_72" data-name="Group 72" transform="translate(-4.4 -4.4)">
    <path id="Path_86" data-name="Path 86" d="M47,89A42,42,0,1,0,5,47,42.048,42.048,0,0,0,47,89ZM47,7.709A39.291,39.291,0,1,1,7.709,47,39.335,39.335,0,0,1,47,7.709Z" transform="translate(0 0)" fill="#ffb136" stroke="#ffb136" stroke-width="1.2"/>
    <path id="Path_87" data-name="Path 87" d="M25.585,72.315a7.3,7.3,0,0,0,10.321,0L54.2,54.026A16.291,16.291,0,0,0,73.1,31.708l-.8-1.827-8.334,8.333a1.049,1.049,0,0,1-1.449,0l-4.35-4.35a1.025,1.025,0,0,1,0-1.45L66.5,24.081l-1.827-.8a16.291,16.291,0,0,0-22.318,18.9L24.066,60.475a7.3,7.3,0,0,0,0,10.321Zm.4-9.921L45.412,42.97l-.238-.779a13.554,13.554,0,0,1,16.471-17.1l-5.4,5.4a3.748,3.748,0,0,0,0,5.292l4.351,4.35a3.74,3.74,0,0,0,5.292,0l5.4-5.4a13.576,13.576,0,0,1-17.1,16.471l-.779-.238L33.986,70.395a4.582,4.582,0,0,1-6.481,0l-1.519-1.519a4.581,4.581,0,0,1,0-6.481Z" transform="translate(-1.191 -1.19)" fill="#ffb136" stroke="#ffb136" stroke-width="1.2"/>
  </g>
</svg>
