<svg xmlns="http://www.w3.org/2000/svg" width="101" height="80" viewBox="0 0 101 80">
  <g id="Group_73" data-name="Group 73" transform="translate(-2 -7)">
    <g id="Group_5" data-name="Group 5" transform="translate(40.366 17.015)">
      <path id="Path_21" data-name="Path 21" d="M32.476,36.154a12.258,12.258,0,0,1-11.512-8.061A12.066,12.066,0,0,1,21.4,18.78a12.286,12.286,0,0,1,16.288-5.868,12.172,12.172,0,0,1,5.9,16.225h0A12.273,12.273,0,0,1,32.476,36.154Zm.029-20.185a8.059,8.059,0,0,0-7.3,4.606,7.884,7.884,0,0,0-.284,6.085,7.969,7.969,0,0,0,4.154,4.532,8.079,8.079,0,0,0,10.708-3.848h0a7.963,7.963,0,0,0-3.872-10.618A8.025,8.025,0,0,0,32.506,15.969ZM41.688,28.24h0Z" transform="translate(-20.234 -11.76)" fill="#ffb136"/>
    </g>
    <g id="Group_6" data-name="Group 6" transform="translate(2 31.903)">
      <path id="Path_22" data-name="Path 22" d="M4.1,73.691a2.1,2.1,0,0,1-1.656-3.4L42.025,19.625a2.1,2.1,0,0,1,3.318,2.588L5.762,72.881A2.1,2.1,0,0,1,4.1,73.691Z" transform="translate(-2 -18.815)" fill="#ffb136"/>
    </g>
    <g id="Group_7" data-name="Group 7" transform="translate(59.462 31.939)">
      <path id="Path_23" data-name="Path 23" d="M70.742,73.893a2.1,2.1,0,0,1-1.664-.816L29.749,22.221a2.1,2.1,0,1,1,3.329-2.573L72.406,70.5a2.1,2.1,0,0,1-1.664,3.39Z" transform="translate(-29.309 -18.832)" fill="#ffb136"/>
    </g>
    <g id="Group_8" data-name="Group 8" transform="translate(54.828 7)">
      <path id="Path_24" data-name="Path 24" d="M29.209,22.178a2.08,2.08,0,0,1-.894-.2,2.105,2.105,0,0,1-1.008-2.8L32.475,8.21A2.1,2.1,0,1,1,36.282,10L31.116,20.97A2.108,2.108,0,0,1,29.209,22.178Z" transform="translate(-27.107 -7)" fill="#ffb136"/>
    </g>
    <g id="Group_9" data-name="Group 9" transform="translate(26.391 36.502)">
      <path id="Path_25" data-name="Path 25" d="M39.793,50.17a36.64,36.64,0,0,1-12.25-2.115,36.284,36.284,0,0,1-13.315-8.311,2.1,2.1,0,1,1,2.937-3.011,32.145,32.145,0,0,0,11.783,7.356,32.494,32.494,0,0,0,41.41-19.535c.189-.526.337-1.054.486-1.582l.122-.438a2.1,2.1,0,0,1,4.046,1.159l-.118.419c-.175.623-.354,1.244-.574,1.862A36.674,36.674,0,0,1,39.793,50.17Z" transform="translate(-13.592 -21.009)" fill="#ffb136"/>
    </g>
  </g>
</svg>
