<svg xmlns="http://www.w3.org/2000/svg" width="98" height="81" viewBox="0 0 98 81">
  <g id="Group_74" data-name="Group 74" transform="translate(-77.755 -151.4)">
    <g id="Group_50" data-name="Group 50" transform="translate(101.509 170.822)">
      <g id="Group_49" data-name="Group 49" transform="translate(0 0)">
        <path id="Path_74" data-name="Path 74" d="M302.3,346.424l-9-9-1.289-1.289v3.2l9-9,1.289-1.289a2.263,2.263,0,0,0-3.2-3.2l-9,9-1.289,1.289a2.3,2.3,0,0,0,0,3.2l9,9,1.289,1.289a2.263,2.263,0,0,0,3.2-3.2Z" transform="translate(-288.162 -325.198)" fill="#ffb136"/>
      </g>
    </g>
    <g id="Group_52" data-name="Group 52" transform="translate(137.214 170.814)">
      <g id="Group_51" data-name="Group 51" transform="translate(0 0)">
        <path id="Path_75" data-name="Path 75" d="M608.276,349.558l9-9,1.289-1.289a2.3,2.3,0,0,0,0-3.2l-9-9-1.289-1.289a2.263,2.263,0,0,0-3.2,3.2l9,9,1.289,1.289v-3.2l-9,9-1.289,1.289a2.263,2.263,0,0,0,3.2,3.2Z" transform="translate(-604.423 -325.123)" fill="#ffb136"/>
      </g>
    </g>
    <g id="Group_54" data-name="Group 54" transform="translate(119.466 165.77)">
      <g id="Group_53" data-name="Group 53" transform="translate(0)">
        <path id="Path_76" data-name="Path 76" d="M451.671,313.906q1.713-5.224,3.415-10.449,2.7-8.261,5.394-16.51c.407-1.255.826-2.522,1.233-3.777a2.282,2.282,0,0,0-1.583-2.782,2.311,2.311,0,0,0-2.782,1.583q-1.713,5.224-3.415,10.449-2.7,8.261-5.394,16.51c-.407,1.255-.826,2.522-1.233,3.777a2.282,2.282,0,0,0,1.583,2.782,2.311,2.311,0,0,0,2.782-1.583Z" transform="translate(-447.218 -280.323)" fill="#ffb136"/>
      </g>
    </g>
    <g id="Group_56" data-name="Group 56" transform="translate(77.756 151.4)">
      <g id="Group_55" data-name="Group 55" transform="translate(0 0)">
        <path id="Path_77" data-name="Path 77" d="M171.227,160.8v44.212c0,.112.045.739-.045.794,0,0,.113-.582.011-.134-.034.145-.056.3-.09.448a8.422,8.422,0,0,1-.271.862c-.169.492.237-.436-.011.011l-.135.269c-.113.213-.248.425-.384.638-.023.045-.056.078-.079.123-.147.19-.113.157.09-.1,0,.067-.237.28-.282.336a8.17,8.17,0,0,1-.632.615,1.33,1.33,0,0,1-.226.19c.079-.056.147-.112.226-.168-.079.056-.158.112-.248.168a6.066,6.066,0,0,1-.644.38,2.738,2.738,0,0,1-.407.2c.011.011.452-.168.124-.056-.294.1-.576.19-.87.269-.147.034-.3.056-.452.09-.519.112.519-.022-.011,0-.215.011-.418.022-.632.022h-79a2.991,2.991,0,0,1-.316-.011c-.079,0-.711-.011-.327-.011s-.079-.022-.158-.034l-.452-.1c-.248-.067-.486-.145-.723-.235-.463-.157.316.19.056.022a3.177,3.177,0,0,0-.339-.168c-.26-.134-.508-.3-.757-.459-.429-.269.373.336-.011-.011l-.226-.19a8.169,8.169,0,0,1-.621-.627c-.034-.034-.192-.19-.192-.224.056.078.113.145.169.224-.056-.078-.113-.157-.169-.246a7.5,7.5,0,0,1-.452-.761c-.034-.067-.282-.414-.079-.134s-.023-.056-.056-.145a5.745,5.745,0,0,1-.215-.716c-.034-.145-.056-.3-.09-.448-.113-.515.023.515,0-.011-.011-.213-.023-.414-.023-.627V160.688c0-.1.011-.213.011-.313,0-.056.011-.1.011-.157.023-.246.023-.2-.023.134-.068-.09.124-.615.158-.75.079-.291.215-.571.282-.85-.136.548-.068.157.023-.011a3.006,3.006,0,0,1,.181-.325c.056-.1.339-.671.44-.683-.034,0-.3.358-.079.1.1-.112.192-.224.294-.325.2-.213.429-.4.644-.6.384-.336-.418.269.011-.011.079-.056.158-.112.248-.168q.322-.2.644-.369l.136-.067c.226-.1.181-.09-.124.045.045-.067.35-.134.429-.157a8.55,8.55,0,0,1,.881-.235,2.122,2.122,0,0,1,.3-.056,2.661,2.661,0,0,0-.294.045,2.8,2.8,0,0,1,.316-.022c.158-.011.316-.011.474-.011h72.237c2.236,0,4.472-.011,6.708,0h.2c.1,0,.215.011.316.011.056,0,.1.011.158.011.248.022.2.022-.136-.022.079-.056.655.134.757.157.248.067.486.145.723.235.5.168-.44-.235.011.011.113.056.226.112.327.168.237.134.463.28.7.425.361.235-.1-.09-.1-.09.068,0,.294.246.339.28.181.168.361.336.519.515.045.056.282.269.282.336,0-.078-.26-.369-.09-.1.158.246.327.492.463.75l.136.269c.248.448-.158-.481.011.011.079.235.169.47.237.716s.079.5.158.75c-.169-.537-.023-.179-.011.022a1.9,1.9,0,0,1,.034.448,2.259,2.259,0,0,0,4.517,0,9.562,9.562,0,0,0-9.5-9.4H88.33a12.6,12.6,0,0,0-3.828.4,9.562,9.562,0,0,0-6.742,9.176c-.011,3.771,0,7.542,0,11.313v32.082c0,.313-.011.638.011.951a9.358,9.358,0,0,0,3.376,6.871,9.811,9.811,0,0,0,6.12,2.216H166.1a9.594,9.594,0,0,0,8.763-5.45,12.841,12.841,0,0,0,.892-5.517V160.8a2.27,2.27,0,0,0-2.258-2.238A2.3,2.3,0,0,0,171.227,160.8Z" transform="translate(-77.756 -151.4)" fill="#ffb136"/>
      </g>
    </g>
    <g id="Group_58" data-name="Group 58" transform="translate(116.377 209.886)">
      <g id="Group_57" data-name="Group 57">
        <path id="Path_78" data-name="Path 78" d="M436.127,676.746v17.969l2.262-2.262H422.162l2.262,2.262V676.746l-2.262,2.262h16.227a2.262,2.262,0,1,0,0-4.523H422.162a2.3,2.3,0,0,0-2.262,2.262v17.969a2.3,2.3,0,0,0,2.262,2.262h16.227a2.3,2.3,0,0,0,2.262-2.262V676.746a2.262,2.262,0,0,0-4.523,0Z" transform="translate(-419.9 -674.482)" fill="#ffb136"/>
      </g>
    </g>
    <g id="Group_60" data-name="Group 60" transform="translate(104.275 227.837)">
      <g id="Group_59" data-name="Group 59" transform="translate(0)">
        <path id="Path_79" data-name="Path 79" d="M315.146,837.766h35.44c1.64,0,3.291.045,4.93,0h.068a2.262,2.262,0,0,0,0-4.523h-35.44c-1.64,0-3.291-.045-4.93,0h-.068a2.262,2.262,0,0,0,0,4.523Z" transform="translate(-312.882 -833.222)" fill="#ffb136"/>
      </g>
    </g>
  </g>
</svg>
